{
  "repos" : [
    {
      "name" : "Vulkan-Headers",
      "url" : "https://github.com/KhronosGroup/Vulkan-Headers.git",
      "sub_dir" : "Vulkan-Headers",
      "build_dir" : "Vulkan-Headers/build",
      "install_dir" : "Vulkan-Headers/build/install",
      "commit": "5eeb2c4c570ce92f5f48bf667e39e9d4da2ef13a"
    },
    {
      "name" : "MoltenVK",
      "url" : "https://github.com/KhronosGroup/MoltenVK.git",
      "sub_dir" : "MoltenVK",
      "build_dir" : "MoltenVK",
      "install_dir" : "MoltenVK",
      "commit" : "v1.2.1",
      "custom_build" : [
        "./fetchDependencies --macos --no-parallel-build",
        "xcodebuild -project MoltenVKPackaging.xcodeproj GCC_PREPROCESSOR_DEFINITIONS='$GCC_PREPROCESSOR_DEFINITIONS MVK_CONFIG_LOG_LEVEL=1' -scheme \"MoltenVK Package (macOS only)\" build"
      ],
      "build_step" : "custom",
      "build_platforms" : [
        "darwin"
      ]
    },
    {
      "name" : "Vulkan-Loader",
      "url" : "https://github.com/KhronosGroup/Vulkan-Loader.git",
      "sub_dir" : "Vulkan-Loader",
      "build_dir" : "Vulkan-Loader/build",
      "install_dir" : "Vulkan-Loader/build/install",
      "commit": "4e1777a8ffbb9b2e784c09a82ecdbc10875825f0",
      "deps" : [
        {
          "var_name" : "VULKAN_HEADERS_INSTALL_DIR",
          "repo_name" : "Vulkan-Headers"
        }
      ],
      "cmake_options" : [
        "-DBUILD_TESTS=NO"
      ],
      "build_platforms" : [
        "linux",
        "darwin"
      ]
    }
  ],
  "install_names" : {
      "Vulkan-Headers" : "VULKAN_HEADERS_INSTALL_DIR",
      "Vulkan-Loader" : "VULKAN_LOADER_INSTALL_DIR",
      "MoltenVK" : "MOLTENVK_REPO_ROOT"
    }
}
